Pendrive,Kingstone,DataTraveler100,20000,565245
CPU,Intel,I7,110000,11234
Laptop,Lenovo,IdePad3030,150000,223445
XBOXController,Microsoft,XBOX360,20000,2221013
RemoteController,Samsung,AA59-00483A,10000,485415218